{
    "count": 62,
    "next": "https://registry.hub.docker.com/v2/repositories/exasol/docker-db/tags?page=2",
    "previous": null,
    "results": [
        {
            "creator": 901327,
            "id": 9522071,
            "images": [
                {
                    "architecture": "amd64",
                    "features": "",
                    "variant": null,
                    "digest": "sha256:638bd1961eb3c863b60240314aa0c1699c02c63201060fbf41a3c0e4bb4b7850",
                    "os": "linux",
                    "os_features": "",
                    "os_version": null,
                    "size": 2337873171,
                    "status": "active",
                    "last_pulled": "2022-09-27T13:26:50.54021Z",
                    "last_pushed": "2022-09-21T08:36:58.602539Z"
                }
            ],
            "last_updated": "2022-09-21T08:36:55.645781Z",
            "last_updater": 2648388,
            "last_updater_username": "ck1714",
            "name": "latest",
            "repository": 1315215,
            "full_size": 2337873171,
            "v2": true,
            "tag_status": "active",
            "tag_last_pulled": "2022-09-27T13:26:50.54021Z",
            "tag_last_pushed": "2022-09-21T08:36:55.645781Z",
            "media_type": "application/vnd.docker.container.image.v1+json",
            "digest": "sha256:638bd1961eb3c863b60240314aa0c1699c02c63201060fbf41a3c0e4bb4b7850"
        },
        {
            "creator": 2648388,
            "id": 160998052,
            "images": [
                {
                    "architecture": "amd64",
                    "features": "",
                    "variant": null,
                    "digest": "sha256:638bd1961eb3c863b60240314aa0c1699c02c63201060fbf41a3c0e4bb4b7850",
                    "os": "linux",
                    "os_features": "",
                    "os_version": null,
                    "size": 2337873171,
                    "status": "active",
                    "last_pulled": "2022-09-27T13:26:50.54021Z",
                    "last_pushed": "2022-09-21T08:36:58.602539Z"
                }
            ],
            "last_updated": "2022-09-21T08:36:58.602539Z",
            "last_updater": 2648388,
            "last_updater_username": "ck1714",
            "name": "latest-7.1",
            "repository": 1315215,
            "full_size": 2337873171,
            "v2": true,
            "tag_status": "active",
            "tag_last_pulled": "2022-09-27T13:26:50.54021Z",
            "tag_last_pushed": "2022-09-21T08:36:58.602539Z",
            "media_type": "application/vnd.docker.container.image.v1+json",
            "digest": "sha256:638bd1961eb3c863b60240314aa0c1699c02c63201060fbf41a3c0e4bb4b7850"
        },
        {
            "creator": 2648388,
            "id": 294654700,
            "images": [
                {
                    "architecture": "amd64",
                    "features": "",
                    "variant": null,
                    "digest": "sha256:638bd1961eb3c863b60240314aa0c1699c02c63201060fbf41a3c0e4bb4b7850",
                    "os": "linux",
                    "os_features": "",
                    "os_version": null,
                    "size": 2337873171,
                    "status": "active",
                    "last_pulled": "2022-09-27T13:26:50.54021Z",
                    "last_pushed": "2022-09-21T08:36:58.602539Z"
                }
            ],
            "last_updated": "2022-09-21T08:36:52.81811Z",
            "last_updater": 2648388,
            "last_updater_username": "ck1714",
            "name": "7.1.14",
            "repository": 1315215,
            "full_size": 2337873171,
            "v2": true,
            "tag_status": "active",
            "tag_last_pulled": "2022-09-27T13:26:50.54021Z",
            "tag_last_pushed": "2022-09-21T08:36:52.81811Z",
            "media_type": "application/vnd.docker.container.image.v1+json",
            "digest": "sha256:638bd1961eb3c863b60240314aa0c1699c02c63201060fbf41a3c0e4bb4b7850"
        },
        {
            "creator": 2648388,
            "id": 277734595,
            "images": [
                {
                    "architecture": "amd64",
                    "features": "",
                    "variant": null,
                    "digest": "sha256:bcce7c6d1e6d31a2e0391b41b03adbaa5c84ce9fc1d17ab1a49e9d95f20839d7",
                    "os": "linux",
                    "os_features": "",
                    "os_version": null,
                    "size": 2338026804,
                    "status": "active",
                    "last_pulled": "2022-09-27T11:35:14.585831Z",
                    "last_pushed": "2022-08-24T10:53:27.30445Z"
                }
            ],
            "last_updated": "2022-08-24T10:53:21.652331Z",
            "last_updater": 2648388,
            "last_updater_username": "ck1714",
            "name": "7.1.13",
            "repository": 1315215,
            "full_size": 2338026804,
            "v2": true,
            "tag_status": "active",
            "tag_last_pulled": "2022-09-27T11:35:14.585831Z",
            "tag_last_pushed": "2022-08-24T10:53:21.652331Z",
            "media_type": "application/vnd.docker.distribution.manifest.v2+json",
            "digest": "sha256:bcce7c6d1e6d31a2e0391b41b03adbaa5c84ce9fc1d17ab1a49e9d95f20839d7"
        },
        {
            "creator": 2648388,
            "id": 116814049,
            "images": [
                {
                    "architecture": "amd64",
                    "features": "",
                    "variant": null,
                    "digest": "sha256:6136ebbeb6f6ef7ad3ea3d5b34f99fb2945fef3da4f62ae20beda595f7a4aeea",
                    "os": "linux",
                    "os_features": "",
                    "os_version": null,
                    "size": 2166558882,
                    "status": "active",
                    "last_pulled": "2022-09-27T11:35:14.189509Z",
                    "last_pushed": "2022-08-18T08:01:30.296982Z"
                }
            ],
            "last_updated": "2022-08-18T08:01:30.296982Z",
            "last_updater": 2648388,
            "last_updater_username": "ck1714",
            "name": "latest-7.0",
            "repository": 1315215,
            "full_size": 2166558882,
            "v2": true,
            "tag_status": "active",
            "tag_last_pulled": "2022-09-27T11:35:14.189509Z",
            "tag_last_pushed": "2022-08-18T08:01:30.296982Z",
            "media_type": "application/vnd.docker.distribution.manifest.v2+json",
            "digest": "sha256:6136ebbeb6f6ef7ad3ea3d5b34f99fb2945fef3da4f62ae20beda595f7a4aeea"
        },
        {
            "creator": 2648388,
            "id": 274113821,
            "images": [
                {
                    "architecture": "amd64",
                    "features": "",
                    "variant": null,
                    "digest": "sha256:6136ebbeb6f6ef7ad3ea3d5b34f99fb2945fef3da4f62ae20beda595f7a4aeea",
                    "os": "linux",
                    "os_features": "",
                    "os_version": null,
                    "size": 2166558882,
                    "status": "active",
                    "last_pulled": "2022-09-27T11:35:14.189509Z",
                    "last_pushed": "2022-08-18T08:01:30.296982Z"
                }
            ],
            "last_updated": "2022-08-18T08:01:27.49573Z",
            "last_updater": 2648388,
            "last_updater_username": "ck1714",
            "name": "7.0.20",
            "repository": 1315215,
            "full_size": 2166558882,
            "v2": true,
            "tag_status": "active",
            "tag_last_pulled": "2022-09-27T11:35:14.189509Z",
            "tag_last_pushed": "2022-08-18T08:01:27.49573Z",
            "media_type": "application/vnd.docker.distribution.manifest.v2+json",
            "digest": "sha256:6136ebbeb6f6ef7ad3ea3d5b34f99fb2945fef3da4f62ae20beda595f7a4aeea"
        },
        {
            "creator": 2648388,
            "id": 252900025,
            "images": [
                {
                    "architecture": "amd64",
                    "features": "",
                    "variant": null,
                    "digest": "sha256:cc215778a7d88d9f981ad6b58076b7bf0d3dbf518fc2a70b8a323c0f8f261b9d",
                    "os": "linux",
                    "os_features": "",
                    "os_version": null,
                    "size": 2333082076,
                    "status": "active",
                    "last_pulled": "2022-09-27T10:16:45.758425Z",
                    "last_pushed": "2022-07-13T14:31:58.725636Z"
                }
            ],
            "last_updated": "2022-07-13T14:31:52.989847Z",
            "last_updater": 2648388,
            "last_updater_username": "ck1714",
            "name": "7.1.12",
            "repository": 1315215,
            "full_size": 2333082076,
            "v2": true,
            "tag_status": "active",
            "tag_last_pulled": "2022-09-27T10:16:45.758425Z",
            "tag_last_pushed": "2022-07-13T14:31:52.989847Z"
        },
        {
            "creator": 2648388,
            "id": 233330431,
            "images": [
                {
                    "architecture": "amd64",
                    "features": "",
                    "variant": null,
                    "digest": "sha256:146ac534c1b00e5e4e8835727b2d520bbf35d0063301b8012514149b8a8dbeae",
                    "os": "linux",
                    "os_features": "",
                    "os_version": null,
                    "size": 2162603506,
                    "status": "active",
                    "last_pulled": "2022-09-09T06:48:29.289235Z",
                    "last_pushed": "2022-06-13T12:22:47.091141Z"
                }
            ],
            "last_updated": "2022-06-13T12:22:44.207078Z",
            "last_updater": 2648388,
            "last_updater_username": "ck1714",
            "name": "7.0.19",
            "repository": 1315215,
            "full_size": 2162603506,
            "v2": true,
            "tag_status": "active",
            "tag_last_pulled": "2022-09-09T06:48:29.289235Z",
            "tag_last_pushed": "2022-06-13T12:22:44.207078Z"
        },
        {
            "creator": 2648388,
            "id": 230940282,
            "images": [
                {
                    "architecture": "amd64",
                    "features": "",
                    "variant": null,
                    "digest": "sha256:c8e633112bd5f34f04e8a5a7ae35f1be641e761b81925f432aa73ca500d7c34c",
                    "os": "linux",
                    "os_features": "",
                    "os_version": null,
                    "size": 2287350240,
                    "status": "active",
                    "last_pulled": "2022-09-27T09:17:14.16867Z",
                    "last_pushed": "2022-06-09T09:14:24.308027Z"
                }
            ],
            "last_updated": "2022-06-09T09:14:18.652491Z",
            "last_updater": 2648388,
            "last_updater_username": "ck1714",
            "name": "7.1.11",
            "repository": 1315215,
            "full_size": 2287350240,
            "v2": true,
            "tag_status": "active",
            "tag_last_pulled": "2022-09-27T09:17:14.16867Z",
            "tag_last_pushed": "2022-06-09T09:14:18.652491Z"
        },
        {
            "creator": 2648388,
            "id": 209106282,
            "images": [
                {
                    "architecture": "amd64",
                    "features": "",
                    "variant": null,
                    "digest": "sha256:374a561486cee68e88275b686123ca33eae2afd4d7a4dca38d48f9acf5844dac",
                    "os": "linux",
                    "os_features": "",
                    "os_version": null,
                    "size": 2271996619,
                    "status": "active",
                    "last_pulled": "2022-09-27T13:05:11.809288Z",
                    "last_pushed": "2022-05-06T06:30:32.060679Z"
                }
            ],
            "last_updated": "2022-05-06T06:30:26.288818Z",
            "last_updater": 2648388,
            "last_updater_username": "ck1714",
            "name": "7.1.10",
            "repository": 1315215,
            "full_size": 2271996619,
            "v2": true,
            "tag_status": "active",
            "tag_last_pulled": "2022-09-27T13:05:11.809288Z",
            "tag_last_pushed": "2022-05-06T06:30:26.288818Z"
        }
    ]
}
